<svg width="28" height="35" viewBox="0 0 28 35" fill="none" xmlns="http://www.w3.org/2000/svg">
<path d="M24.6528 6.46089C22.0973 2.7623 18.0471 0.640625 13.5417 0.640625C9.03622 0.640625 4.98608 2.7623 2.43054 6.46089C-0.112445 10.1408 -0.699629 14.7996 0.856695 18.9157C1.27297 20.0397 1.93469 21.1317 2.81877 22.1551L12.6506 33.7035C12.873 33.9649 13.1988 34.1156 13.5417 34.1156C13.8846 34.1156 14.2104 33.965 14.4328 33.7035L24.2618 22.1582C25.1498 21.129 25.8107 20.0381 26.2235 18.9231C27.783 14.7996 27.1958 10.1408 24.6528 6.46089ZM24.0317 18.1034C23.7134 18.9636 23.1936 19.8142 22.4879 20.6323C22.4859 20.6343 22.4839 20.6362 22.4824 20.6386L13.5417 31.1399L4.59549 20.632C3.8901 19.8146 3.37039 18.9641 3.04891 18.0956C1.76183 14.6915 2.25029 10.8396 4.35594 7.7921C6.4682 4.7349 9.81648 2.98152 13.5417 2.98152C17.2668 2.98152 20.6147 4.73483 22.727 7.7921C24.8331 10.8396 25.3219 14.6915 24.0317 18.1034Z" fill="#FFD335"/>
<path d="M13.5419 7.58594C9.92787 7.58594 6.9873 10.5261 6.9873 14.1405C6.9873 17.7549 9.92748 20.695 13.5419 20.695C17.1562 20.695 20.0964 17.7549 20.0964 14.1405C20.0964 10.5265 17.1558 7.58594 13.5419 7.58594ZM13.5419 18.3541C11.2185 18.3541 9.3282 16.4638 9.3282 14.1404C9.3282 11.8171 11.2185 9.92677 13.5419 9.92677C15.8652 9.92677 17.7555 11.8171 17.7555 14.1404C17.7555 16.4638 15.8652 18.3541 13.5419 18.3541Z" fill="#FFD335"/>
</svg>
