<svg width="30" height="30" viewBox="0 0 30 30" fill="none" xmlns="http://www.w3.org/2000/svg">
<circle cx="15" cy="15" r="15" fill="#FFD028"/>
<path d="M13.3882 21.3725C13.2284 21.5364 13.0103 21.6279 12.7838 21.6279C12.5573 21.6279 12.3392 21.5364 12.1794 21.3725L7.35227 16.4502C6.85133 15.9395 6.85133 15.1113 7.35227 14.6015L7.9567 13.9851C8.4578 13.4744 9.26918 13.4744 9.77013 13.9851L12.7838 17.0579L20.9272 8.75513C21.4283 8.24438 22.2404 8.24438 22.7406 8.75513L23.345 9.37153C23.846 9.88227 23.846 10.7103 23.345 11.2203L13.3882 21.3725Z" fill="white"/>
</svg>
