<svg width="16" height="19" viewBox="0 0 16 19" fill="none" xmlns="http://www.w3.org/2000/svg">
<path fill-rule="evenodd" clip-rule="evenodd" d="M11.8848 4.55861H5.13151C4.78841 4.55861 4.5083 4.83911 4.5083 5.18181V16.9976C4.5083 17.3407 4.78841 17.6212 5.13151 17.6212H14.1206C14.4633 17.6212 14.7438 17.3407 14.7438 16.9976V7.41731L11.8848 4.55861Z" stroke="#1D1D1B" stroke-linecap="round" stroke-linejoin="round"/>
<path fill-rule="evenodd" clip-rule="evenodd" d="M11.4287 4.55861V7.29909C11.4287 7.64179 11.7092 7.92229 12.0519 7.92229H14.7437V7.41731L11.8846 4.55861H11.4287Z" stroke="#1D1D1B" stroke-linecap="round" stroke-linejoin="round"/>
<path fill-rule="evenodd" clip-rule="evenodd" d="M8.11377 1.19337V3.93385C8.11377 4.27617 8.39427 4.55706 8.73697 4.55706H11.4288V4.05208L8.56968 1.19337H8.11377Z" stroke="#1D1D1B" stroke-linecap="round" stroke-linejoin="round"/>
<path fill-rule="evenodd" clip-rule="evenodd" d="M4.50836 5.18188C4.50836 4.83879 4.78886 4.55868 5.13156 4.55868H11.4289V4.05216L8.56981 1.19345H1.81656C1.47386 1.19345 1.19336 1.47356 1.19336 1.81627V13.6324C1.19336 13.9755 1.47386 14.2556 1.81656 14.2556H4.50836V5.18188Z" stroke="#1D1D1B" stroke-linecap="round" stroke-linejoin="round"/>
<path d="M7.64258 10.7295H13.2615" stroke="#1D1D1B" stroke-linecap="round" stroke-linejoin="round"/>
<path d="M7.64258 12.6281H13.2615" stroke="#1D1D1B" stroke-linecap="round" stroke-linejoin="round"/>
<path d="M7.64258 14.5267H13.2615" stroke="#1D1D1B" stroke-linecap="round" stroke-linejoin="round"/>
</svg>
